module user-service

go 1.20

require (
	github.com/go-chi/chi/v5 v5.0.8
	github.com/go-playground/validator v9.31.0+incompatible
	github.com/google/uuid v1.3.0
	github.com/redis/go-redis/v9 v9.0.3
	github.com/stretchr/testify v1.8.2
	go.mongodb.org/mongo-driver v1.11.4
	golang.org/x/crypto v0.0.0-20220622213112-05595931fe9d
	gopkg.in/yaml.v3 v3.0.1
)

require (
	github.com/cespare/xxhash/v2 v2.2.0 // indirect
	github.com/davecgh/go-spew v1.1.1 // indirect
	github.com/dgryski/go-rendezvous v0.0.0-20200823014737-9f7001d12a5f // indirect
	github.com/go-playground/locales v0.14.1 // indirect
	github.com/go-playground/universal-translator v0.18.1 // indirect
	github.com/golang/snappy v0.0.1 // indirect
	github.com/klauspost/compress v1.13.6 // indirect
	github.com/leodido/go-urn v1.2.3 // indirect
	github.com/montanaflynn/stats v0.0.0-20171201202039-1bf9dbcd8cbe // indirect
	github.com/pkg/errors v0.9.1 // indirect
	github.com/pmezard/go-difflib v1.0.0 // indirect
	github.com/xdg-go/pbkdf2 v1.0.0 // indirect
	github.com/xdg-go/scram v1.1.1 // indirect
	github.com/xdg-go/stringprep v1.0.3 // indirect
	github.com/youmark/pkcs8 v0.0.0-20181117223130-1be2e3e5546d // indirect
	golang.org/x/sync v0.0.0-20210220032951-036812b2e83c // indirect
	golang.org/x/text v0.3.8 // indirect
	gopkg.in/go-playground/assert.v1 v1.2.1 // indirect
)
